<?xml version="1.0" encoding="UTF-8" standalone="no"?>
<!-- Created with Inkscape (http://www.inkscape.org/) -->

<svg
   width="100mm"
   height="185mm"
   viewBox="0 0 100 185"
   version="1.1"
   id="svg193"
   xmlns:xlink="http://www.w3.org/1999/xlink"
   xmlns="http://www.w3.org/2000/svg"
   xmlns:svg="http://www.w3.org/2000/svg">
  <defs
     id="defs190">
    <linearGradient
       id="linearGradient432">
      <stop
         style="stop-color:#b00000;stop-opacity:1;"
         offset="0"
         id="stop428" />
      <stop
         style="stop-color:#b00000;stop-opacity:0;"
         offset="1"
         id="stop430" />
    </linearGradient>
    <radialGradient
       xlink:href="#linearGradient432"
       id="radialGradient434"
       cx="71.688164"
       cy="112.0556"
       fx="71.688164"
       fy="112.0556"
       r="37.17086"
       gradientTransform="matrix(1.4722176,-0.00703571,0.00568808,1.1902144,-34.48979,-20.515255)"
       gradientUnits="userSpaceOnUse" />
  </defs>
  <g
     id="layer5"
     transform="translate(-20,-20)">
    <path
       id="middle"
       style="fill:url(#radialGradient434);fill-opacity:1;stroke-width:4.07458"
       d="M 107.44704,112.5 94.999998,125 H 44.999999 L 33.105317,112.70755 44.999999,100 l 49.999999,-10e-7 z" />
    <rect
       style="fill:none;fill-opacity:1;stroke-width:4.07458;stroke-miterlimit:4;stroke-dasharray:none"
       id="rect8956"
       width="100"
       height="2.5000095"
       x="20"
       y="112.70754" />
    <rect
       style="fill:none;fill-opacity:1;stroke-width:4.07458;stroke-miterlimit:4;stroke-dasharray:none"
       id="rect8958"
       width="2.2735631"
       height="185"
       x="117.72644"
       y="20" />
  </g>
</svg>
